8,0,0,1,1,1
0,3,1,2,1,1
0,3,1,3,1,1
0,3,1,4,1,1
0,3,1,5,1,1
0,3,1,6,1,1
0,3,1,7,1,1
0,3,2,8,1,1
0,4,2,9,1,1
0,5,3,10,1,1
0,5,4,11,1,1
0,5,5,12,1,1
0,5,5,13,1,1
0,5,5,14,1,1
0,5,5,15,1,1
0,5,5,16,1,1
0,5,5,17,1,1
0,5,6,18,1,1
0,5,6,19,1,1
0,5,7,20,1,0
2,0,0,1,0,0
2,0,0,2,0,0
2,0,0,3,0,0
3,0,0,4,0,0
3,0,0,5,0,0
4,0,0,6,0,0
4,0,0,7,0,0
4,0,0,8,0,0
4,0,0,9,0,0
4,0,0,10,0,0
5,0,0,11,0,0
5,0,0,12,0,0
5,0,0,13,0,0
6,0,0,14,0,0
7,0,0,15,0,0
8,0,0,16,0,0
8,0,0,17,0,0
9,0,0,18,0,0
9,0,0,19,0,0
10,0,0,20,0,1
0,1,3,1,1,1
0,1,3,2,1,1
0,2,3,3,1,1
0,2,3,4,1,1
0,2,4,5,1,1
0,2,4,6,1,1
0,2,4,7,1,1
0,2,4,8,1,1
0,2,4,9,1,1
0,2,4,10,1,1
0,3,5,11,1,1
0,3,5,12,1,1
0,3,5,13,1,1
0,4,6,14,1,1
0,4,6,15,1,1
0,4,6,16,1,1
0,4,7,17,1,1
0,5,7,18,1,1
0,5,7,19,1,1
0,5,7,20,1,1
0,5,8,21,1,1
0,5,8,22,1,1
0,6,9,23,1,1
0,6,9,24,1,1
0,6,10,25,1,1
0,7,10,26,1,1
0,7,10,27,1,1
0,7,11,28,1,1
0,7,11,29,1,1
0,8,12,30,1,1
0,8,12,31,1,1
0,8,12,32,1,1
0,8,13,33,1,1
0,8,13,34,1,1
0,8,13,35,1,1
0,8,14,36,1,1
0,8,14,37,1,1
0,8,15,38,1,1
0,8,15,39,1,1
0,8,15,40,1,1
0,8,15,41,1,1
0,8,16,42,1,1
0,8,16,43,1,1
0,8,16,44,1,1
0,8,17,45,1,1
0,9,17,46,1,1
0,9,18,47,1,1
0,9,18,48,1,1
0,9,18,49,1,1
0,10,19,50,1,0
1,0,0,1,0,0
1,0,0,2,0,0
1,0,0,3,0,0
2,0,0,4,0,0
2,0,0,5,0,0
2,0,0,6,0,0
2,0,0,7,0,0
2,0,0,8,0,0
2,0,0,9,0,0
2,0,0,10,0,0
2,0,0,11,0,0
2,0,0,12,0,0
2,0,0,13,0,0
2,0,0,14,0,0
2,0,0,15,0,0
3,0,0,16,0,0
3,0,0,17,0,0
3,0,0,18,0,0
3,0,0,19,0,0
3,0,0,20,0,0
3,0,0,21,0,0
3,0,0,22,0,0
3,0,0,23,0,0
4,0,0,24,0,0
4,0,0,25,0,0
4,0,0,26,0,0
4,0,0,27,0,0
4,0,0,28,0,0
4,0,0,29,0,0
5,0,0,30,0,0
5,0,0,31,0,0
5,0,0,32,0,0
5,0,0,33,0,0
5,0,0,34,0,0
5,0,0,35,0,0
5,0,0,36,0,0
5,0,0,37,0,0
5,0,0,38,0,0
6,0,0,39,0,0
6,0,0,40,0,1
0,2,1,1,1,1
0,2,1,2,1,1
0,2,1,3,1,1
0,2,1,4,1,1
0,3,2,5,1,1
0,3,2,6,1,1
0,3,2,7,1,1
0,3,2,8,1,1
0,4,2,9,1,1
0,4,3,10,1,1
0,4,3,11,1,1
0,4,3,12,1,1
0,4,3,13,1,1
0,4,4,14,1,1
0,4,4,15,1,1
0,4,4,16,1,1
0,5,4,17,1,1
0,5,4,18,1,1
0,5,4,19,1,1
0,5,5,20,1,1
0,5,5,21,1,1
0,5,6,22,1,1
0,5,6,23,1,1
0,5,7,24,1,1
0,5,7,25,1,1
0,6,7,26,1,1
0,6,8,27,1,1
0,6,8,28,1,1
0,6,8,29,1,1
0,7,9,30,1,1
0,7,9,31,1,1
0,7,9,32,1,1
0,7,10,33,1,1
0,7,10,34,1,1
0,8,10,35,1,1
0,8,11,36,1,1
0,9,11,37,1,1
0,9,11,38,1,1
0,9,11,39,1,1
0,10,12,40,1,1
0,10,12,41,1,1
0,10,12,42,1,1
0,10,12,43,1,1
0,10,12,44,1,1
0,10,12,45,1,1
0,10,13,46,1,1
0,10,13,47,1,1
0,10,14,48,1,1
0,10,14,49,1,1
0,10,15,50,1,1
0,11,15,51,1,1
0,11,15,52,1,1
0,11,15,53,1,1
0,11,15,54,1,1
0,11,15,55,1,1
0,12,15,56,1,1
0,12,15,57,1,1
0,12,15,58,1,1
0,12,16,59,1,1
0,12,16,60,1,1
0,12,16,61,1,1
0,13,16,62,1,1
0,13,16,63,1,1
0,13,16,64,1,1
0,13,16,65,1,1
0,13,16,66,1,1
0,13,16,67,1,1
0,13,16,68,1,1
0,13,16,69,1,1
0,13,16,70,1,1
0,13,16,71,1,1
0,13,16,72,1,1
0,13,16,73,1,1
0,13,16,74,1,1
0,13,16,75,1,1
0,13,16,76,1,1
0,13,16,77,1,1
0,13,16,78,1,1
0,10,2,79,1,0
3,0,0,1,0,0
3,0,0,2,0,0
3,0,0,3,0,0
3,0,0,4,0,0
3,0,0,5,0,0
3,0,0,6,0,0
3,0,0,7,0,0
3,0,0,8,0,0
3,0,0,9,0,0
3,0,0,10,0,0
3,0,0,11,0,0
3,0,0,12,0,0
3,0,0,13,0,0
3,0,0,14,0,0
3,0,0,15,0,0
3,0,0,16,0,0
4,0,0,17,0,0
4,0,0,18,0,0
4,0,0,19,0,0
4,0,0,20,0,0
4,0,0,21,0,0
4,0,0,22,0,0
4,0,0,23,0,0
5,0,0,24,0,0
5,0,0,25,0,0
6,0,0,26,0,0
6,0,0,27,0,0
6,0,0,28,0,0
6,0,0,29,0,0
7,0,0,30,0,0
7,0,0,31,0,0
7,0,0,32,0,0
7,0,0,33,0,0
8,0,0,34,0,0
8,0,0,35,0,0
8,0,0,36,0,0
9,0,0,37,0,0
9,0,0,38,0,0
9,0,0,39,0,0
10,0,0,34,0,1
0,1,3,1,1,1
0,1,3,2,1,1
0,1,3,3,1,1
0,1,4,4,1,1
0,1,4,5,1,1
0,1,4,6,1,1
0,2,5,7,1,1
0,2,5,8,1,1
0,2,5,9,1,1
0,3,6,10,1,1
0,3,6,11,1,1
0,3,6,12,1,1
0,3,6,13,1,1
0,3,6,14,1,1
0,3,7,15,1,1
0,4,7,16,1,1
0,4,8,17,1,1
0,4,8,18,1,1
0,4,8,19,1,1
0,5,9,20,1,1
0,5,9,21,1,1
0,5,9,22,1,1
0,5,9,23,1,1
0,5,9,24,1,1
0,5,9,25,1,1
0,6,9,26,1,1
0,6,9,27,1,1
0,6,9,28,1,1
0,6,9,29,1,1
0,7,10,30,1,1
0,7,10,31,1,1
0,7,10,32,1,1
0,7,10,33,1,1
0,7,10,34,1,1
0,7,10,35,1,1
0,7,11,36,1,1
0,7,12,37,1,1
0,7,12,38,1,1
0,7,12,39,1,1
0,8,12,40,1,1
0,8,13,41,1,1
0,8,13,42,1,1
0,8,13,43,1,1
0,8,13,44,1,1
0,8,14,45,1,1
0,8,14,46,1,1
0,9,14,47,1,1
0,9,14,48,1,1
0,9,14,49,1,1
0,10,15,50,1,1
0,10,15,51,1,1
0,10,15,52,1,1
0,10,15,53,1,1
0,10,15,54,1,1
0,10,15,55,1,1
0,10,16,56,1,1
0,10,16,57,1,1
0,10,16,58,1,1
0,10,16,59,1,1
0,10,17,60,1,1
0,10,17,61,1,1
0,10,17,62,1,1
0,10,18,63,1,1
0,10,18,64,1,1
0,10,19,65,1,1
0,10,19,66,1,1
0,10,19,67,1,1
0,10,19,68,1,1
0,10,19,69,1,1
0,10,20,70,1,0
4,0,0,1,0,0
4,0,0,2,0,0
4,0,0,3,0,0
4,0,0,4,0,0
4,0,0,5,0,0
4,0,0,6,0,0
5,0,0,7,0,0
5,0,0,8,0,0
5,0,0,9,0,0
6,0,0,10,0,0
6,0,0,11,0,0
6,0,0,12,0,0
6,0,0,13,0,0
6,0,0,14,0,0
6,0,0,15,0,0
6,0,0,16,0,0
6,0,0,17,0,0
7,0,0,18,0,0
7,0,0,19,0,0
8,0,0,20,0,0
8,0,0,21,0,0
9,0,0,22,0,0
9,0,0,23,0,0
10,0,0,24,0,0
10,0,0,25,0,0
11,0,0,26,0,0
11,0,0,27,0,0
11,0,0,28,0,0
12,0,0,29,0,0
12,0,0,30,0,0
12,0,0,31,0,0
12,0,0,32,0,0
12,0,0,33,0,0
12,0,0,34,0,0
12,0,0,35,0,0
12,0,0,36,0,0
12,0,0,37,0,0
12,0,0,38,0,0
12,0,0,39,0,0
12,0,0,40,0,0
12,0,0,41,0,0
12,0,0,42,0,0
12,0,0,43,0,0
13,0,0,44,0,0
13,0,0,45,0,0
13,0,0,46,0,0
13,0,0,47,0,0
13,0,0,48,0,0
13,0,0,49,0,0
13,0,0,50,0,1
0,3,3,1,1,1
0,3,3,2,1,1
0,3,3,3,1,1
0,3,3,4,1,1
0,3,3,5,1,1
0,3,3,6,1,1
0,3,4,7,1,1
0,3,4,8,1,1
0,3,4,9,1,1
0,4,5,10,1,1
0,4,5,11,1,1
0,4,5,12,1,1
0,4,5,13,1,1
0,4,5,14,1,1
0,4,5,15,1,1
0,4,6,16,1,1
0,5,6,17,1,1
0,6,7,18,1,1
0,6,7,19,1,1
0,7,8,20,1,1
0,7,8,21,1,1
0,7,8,22,1,1
0,7,8,23,1,1
0,7,8,24,1,1
0,7,9,25,1,1
0,7,9,26,1,1
0,7,9,27,1,1
0,7,9,28,1,1
0,7,9,29,1,1
0,7,10,30,1,1
0,7,10,31,1,1
0,7,10,32,1,1
0,7,10,33,1,1
0,7,10,34,1,1
0,7,10,35,1,1
0,7,10,36,1,1
0,7,10,37,1,1
0,7,10,38,1,1
0,7,10,39,1,1
0,8,11,40,1,1
0,8,11,41,1,1
0,8,11,42,1,1
0,8,11,43,1,1
0,8,11,44,1,1
0,9,11,45,1,1
0,9,11,46,1,1
0,9,11,47,1,1
0,9,11,48,1,1
0,9,11,49,1,1
0,10,11,50,1,1
0,10,12,51,1,1
0,10,12,52,1,1
0,10,12,53,1,1
0,10,12,54,1,1
0,10,13,55,1,1
0,10,14,56,1,1
0,10,14,57,1,1
0,10,14,58,1,1
0,10,14,59,1,1
0,10,14,60,1,1
0,10,14,61,1,1
0,11,15,62,1,0
2,0,0,1,0,0
2,0,0,2,0,0
2,0,0,3,0,0
2,0,0,4,0,0
2,0,0,5,0,0
2,0,0,6,0,0
2,0,0,7,0,0
2,0,0,8,0,0
2,0,0,9,0,0
2,0,0,10,0,0
3,0,0,11,0,0
3,0,0,12,0,0
3,0,0,13,0,0
3,0,0,14,0,0
3,0,0,15,0,0
3,0,0,16,0,0
3,0,0,17,0,0
3,0,0,18,0,0
3,0,0,19,0,0
4,0,0,20,0,0
4,0,0,21,0,0
4,0,0,22,0,0
4,0,0,23,0,0
4,0,0,24,0,0
5,0,0,25,0,0
5,0,0,26,0,0
5,0,0,27,0,0
5,0,0,28,0,0
5,0,0,29,0,0
6,0,0,30,0,0
6,0,0,31,0,0
6,0,0,32,0,0
6,0,0,33,0,0
6,0,0,34,0,0
6,0,0,35,0,0
6,0,0,36,0,0
6,0,0,37,0,0
6,0,0,38,0,0
6,0,0,39,0,0
7,0,0,40,0,0
7,0,0,41,0,0
7,0,0,42,0,0
7,0,0,43,0,0
7,0,0,44,0,0
7,0,0,45,0,0
8,0,0,46,0,0
9,0,0,47,0,0
9,0,0,48,0,0
9,0,0,49,0,0
10,0,0,51,0,1
0,2,5,1,1,1
0,3,5,2,1,1
0,3,5,3,1,1
0,3,6,4,1,1
0,3,6,5,1,1
0,3,7,6,1,1
0,4,7,7,1,1
0,4,8,8,1,1
0,4,9,9,1,1
0,5,10,10,1,1
0,5,10,11,1,1
0,5,11,12,1,1
0,5,11,13,1,1
0,5,11,14,1,1
0,5,11,15,1,1
0,5,12,16,1,1
0,6,12,17,1,1
0,6,12,18,1,1
0,6,12,19,1,1
0,7,13,20,1,1
0,7,13,21,1,1
0,7,13,22,1,1
0,7,13,23,1,1
0,7,13,24,1,1
0,7,13,25,1,1
0,7,14,26,1,1
0,7,15,27,1,1
0,8,15,28,1,1
0,9,15,29,1,1
0,10,16,30,1,1
0,10,16,31,1,1
0,10,16,32,1,1
0,10,16,33,1,1
0,10,16,34,1,1
0,10,17,35,1,1
0,10,17,36,1,1
0,10,18,37,1,1
0,10,18,38,1,1
0,10,18,39,1,1
0,10,19,40,1,1
0,11,19,41,1,1
0,11,19,42,1,1
0,11,19,43,1,1
0,11,19,44,1,1
0,11,19,45,1,1
0,11,19,46,1,1
0,11,19,47,1,1
0,11,19,48,1,1
0,11,19,49,1,1
0,12,19,50,1,1
0,12,19,51,1,1
0,12,19,52,1,1
0,12,19,53,1,1
0,12,19,54,1,1
0,12,19,55,1,1
0,12,19,56,1,1
0,12,19,57,1,1
0,12,19,58,1,1
0,12,19,59,1,1
0,13,20,60,1,1
0,13,20,61,1,1
0,13,20,62,1,1
0,13,20,63,1,1
0,13,20,64,1,1
0,13,20,65,1,1
0,13,20,66,1,1
0,13,20,67,1,1
0,13,20,68,1,1
0,13,20,69,1,1
0,13,20,70,1,1
0,13,21,71,1,1
0,13,21,72,1,1
0,13,22,73,1,1
0,13,23,74,1,1
0,13,24,75,1,1
0,14,25,76,1,0
2,0,0,1,0,0
2,0,0,2,0,0
2,0,0,3,0,0
2,0,0,4,0,0
2,0,0,5,0,0
2,0,0,6,0,0
2,0,0,7,0,0
2,0,0,8,0,0
2,0,0,9,0,0
3,0,0,10,0,0
3,0,0,11,0,0
3,0,0,12,0,0
3,0,0,13,0,0
3,0,0,14,0,0
3,0,0,15,0,0
3,0,0,16,0,0
3,0,0,17,0,0
3,0,0,18,0,0
3,0,0,19,0,0
4,0,0,20,0,0
4,0,0,21,0,0
4,0,0,22,0,0
4,0,0,23,0,0
4,0,0,24,0,0
5,0,0,25,0,0
5,0,0,26,0,0
6,0,0,27,0,0
6,0,0,28,0,0
6,0,0,29,0,0
7,0,0,30,0,0
7,0,0,31,0,0
7,0,0,32,0,0
7,0,0,33,0,0
7,0,0,34,0,0
7,0,0,35,0,0
7,0,0,36,0,0
7,0,0,37,0,0
7,0,0,38,0,0
7,0,0,39,0,0
8,0,0,40,0,0
8,0,0,41,0,0
8,0,0,42,0,0
8,0,0,43,0,0
8,0,0,44,0,0
8,0,0,45,0,0
8,0,0,46,0,0
9,0,0,47,0,1
0,0,1,1,1,1
0,0,1,2,1,1
0,0,1,3,1,1
0,0,1,4,1,1
0,0,1,5,1,1
0,1,1,6,1,1
0,1,1,7,1,1
0,1,1,8,1,1
0,1,1,9,1,1
0,1,0,10,1,1
0,1,0,11,1,1
0,1,0,12,1,1
0,1,0,13,1,1
0,1,0,14,1,1
0,1,0,15,1,1
0,1,0,16,1,1
0,2,1,17,1,1
0,2,1,18,1,1
0,2,1,19,1,1
0,3,2,20,1,1
0,3,2,21,1,1
0,3,2,22,1,1
0,3,2,23,1,1
0,4,3,24,1,1
0,4,3,25,1,1
0,4,5,26,1,1
0,4,5,27,1,1
0,4,5,28,1,1
0,4,5,29,1,1
0,5,6,30,1,1
0,5,6,31,1,1
0,5,6,32,1,1
0,5,6,33,1,1
0,6,6,34,1,1
0,6,7,35,1,1
0,6,7,36,1,1
0,6,7,37,1,1
0,6,8,38,1,1
0,6,9,39,1,1
0,7,10,40,1,1
0,7,10,41,1,1
0,7,10,42,1,1
0,7,10,43,1,1
0,7,10,44,1,1
0,7,10,45,1,1
0,7,10,46,1,1
0,7,11,47,1,1
0,7,11,48,1,1
0,7,11,49,1,1
0,8,12,50,1,1
0,8,12,51,1,1
0,8,12,52,1,1
0,8,12,53,1,1
0,8,12,54,1,1
0,8,12,55,1,1
0,8,12,56,1,1
0,8,12,57,1,1
0,8,12,58,1,1
0,8,12,59,1,1
0,9,12,60,1,1
0,9,12,61,1,1
0,9,12,62,1,1
0,9,12,63,1,1
0,10,15,64,1,0
4,0,0,1,0,0
4,0,0,2,0,0
5,0,0,3,0,0
5,0,0,4,0,0
6,0,0,5,0,0
6,0,0,6,0,0
7,0,0,7,0,0
7,0,0,8,0,0
7,0,0,9,0,0
7,0,0,10,0,0
